module gitlab.com/commandff/gdlemonitor

go 1.18

require (
	github.com/foomo/simplecert v1.8.3
	github.com/fsnotify/fsnotify v1.5.4
	github.com/go-sql-driver/mysql v1.6.0
	github.com/golang-jwt/jwt v3.2.2+incompatible
	github.com/gorilla/mux v1.8.0
	github.com/juju/ratelimit v1.0.2
	github.com/sunshineplan/imgconv v1.1.3
	golang.org/x/sys v0.0.0-20220926163933-8cfa568d3c25
)

require (
	github.com/disintegration/imaging v1.6.2 // indirect
	github.com/hhrutter/lzw v0.0.0-20190829144645-6f07a24e8650 // indirect
	github.com/hhrutter/tiff v0.0.0-20190829141212-736cae8d0bc7 // indirect
	github.com/pdfcpu/pdfcpu v0.3.13 // indirect
	github.com/sunshineplan/pdf v1.0.2 // indirect
	github.com/sunshineplan/tiff v0.0.0-20220128141034-29b9d69bd906 // indirect
	github.com/tdewolff/parse/v2 v2.6.4 // indirect
	golang.org/x/crypto v0.0.0-20220926161630-eccd6366d1be // indirect
	golang.org/x/image v0.0.0-20220902085622-e7cb96979f69 // indirect
	golang.org/x/oauth2 v0.0.0-20210113205817-d3ed898aa8a3 // indirect
	gopkg.in/h2non/gock.v1 v1.0.16 // indirect
)

require (
	cloud.google.com/go v0.75.0 // indirect
	github.com/Azure/azure-sdk-for-go v50.1.0+incompatible // indirect
	github.com/Azure/go-autorest v14.2.0+incompatible // indirect
	github.com/Azure/go-autorest/autorest v0.11.17 // indirect
	github.com/Azure/go-autorest/autorest/adal v0.9.10 // indirect
	github.com/Azure/go-autorest/autorest/azure/auth v0.5.6 // indirect
	github.com/Azure/go-autorest/autorest/azure/cli v0.4.2 // indirect
	github.com/Azure/go-autorest/autorest/date v0.3.0 // indirect
	github.com/Azure/go-autorest/autorest/to v0.4.0 // indirect
	github.com/Azure/go-autorest/autorest/validation v0.3.1 // indirect
	github.com/Azure/go-autorest/logger v0.2.0 // indirect
	github.com/Azure/go-autorest/tracing v0.6.0 // indirect
	github.com/OpenDNS/vegadns2client v0.0.0-20180418235048-a3fa4a771d87 // indirect
	github.com/akamai/AkamaiOPEN-edgegrid-golang v1.0.1 // indirect
	github.com/aliyun/alibaba-cloud-sdk-go v1.61.869 // indirect
	github.com/aws/aws-sdk-go v1.36.29 // indirect
	github.com/boombuler/barcode v1.0.1-0.20190219062509-6c824513bacc // indirect
	github.com/cenkalti/backoff/v4 v4.1.0 // indirect
	github.com/cloudflare/cloudflare-go v0.13.7 // indirect
	github.com/cpu/goacmedns v0.1.1 // indirect
	github.com/davecgh/go-spew v1.1.1 // indirect
	github.com/deepmap/oapi-codegen v1.4.2 // indirect
	github.com/dimchansky/utfbom v1.1.1 // indirect
	github.com/dnsimple/dnsimple-go v0.63.0 // indirect
	github.com/exoscale/egoscale v0.40.0 // indirect
	github.com/fatih/structs v1.1.0 // indirect
	github.com/foomo/tlsconfig v0.0.0-20180418120404-b67861b076c9 // indirect
	github.com/form3tech-oss/jwt-go v3.2.2+incompatible // indirect
	github.com/go-acme/lego/v4 v4.1.3 // indirect
	github.com/go-errors/errors v1.1.1 // indirect
	github.com/go-resty/resty/v2 v2.4.0 // indirect
	github.com/gofrs/uuid v4.0.0+incompatible // indirect
	github.com/golang/groupcache v0.0.0-20200121045136-8c9f03a8e57e // indirect
	github.com/golang/protobuf v1.4.3 // indirect
	github.com/goodhosts/hostsfile v0.0.7 // indirect
	github.com/google/go-querystring v1.0.0 // indirect
	github.com/google/uuid v1.1.5 // indirect
	github.com/googleapis/gax-go/v2 v2.0.5 // indirect
	github.com/gophercloud/gophercloud v0.15.0 // indirect
	github.com/gophercloud/utils v0.0.0-20210113034859-6f548432055a // indirect
	github.com/hashicorp/go-cleanhttp v0.5.1 // indirect
	github.com/hashicorp/go-retryablehttp v0.6.8 // indirect
	github.com/iij/doapi v0.0.0-20190504054126-0bbf12d6d7df // indirect
	github.com/jarcoal/httpmock v1.0.7 // indirect
	github.com/jmespath/go-jmespath v0.4.0 // indirect
	github.com/json-iterator/go v1.1.10 // indirect
	github.com/kolo/xmlrpc v0.0.0-20201022064351-38db28db192b // indirect
	github.com/labbsr0x/bindman-dns-webhook v1.0.2 // indirect
	github.com/labbsr0x/goh v1.0.1 // indirect
	github.com/linode/linodego v0.24.2 // indirect
	github.com/liquidweb/liquidweb-go v1.6.1 // indirect
	github.com/miekg/dns v1.1.35 // indirect
	github.com/mitchellh/go-homedir v1.1.0 // indirect
	github.com/mitchellh/mapstructure v1.4.1 // indirect
	github.com/modern-go/concurrent v0.0.0-20180306012644-bacd9c7ef1dd // indirect
	github.com/modern-go/reflect2 v1.0.1 // indirect
	github.com/namedotcom/go v0.0.0-20180403034216-08470befbe04 // indirect
	github.com/nrdcg/auroradns v1.0.1 // indirect
	github.com/nrdcg/desec v0.5.0 // indirect
	github.com/nrdcg/dnspod-go v0.4.0 // indirect
	github.com/nrdcg/goinwx v0.8.1 // indirect
	github.com/nrdcg/namesilo v0.2.1 // indirect
	github.com/oracle/oci-go-sdk v24.3.0+incompatible // indirect
	github.com/ovh/go-ovh v1.1.0 // indirect
	github.com/patrickmn/go-cache v2.1.0+incompatible // indirect
	github.com/pkg/errors v0.9.1 // indirect
	github.com/pmezard/go-difflib v1.0.0 // indirect
	github.com/pquerna/otp v1.3.0 // indirect
	github.com/sacloud/libsacloud v1.36.2 // indirect
	github.com/sirupsen/logrus v1.7.0 // indirect
	github.com/stretchr/objx v0.3.0 // indirect
	github.com/stretchr/testify v1.7.0 // indirect
	github.com/tdewolff/minify/v2 v2.12.4
	github.com/transip/gotransip/v6 v6.5.0 // indirect
	github.com/vultr/govultr v1.1.1 // indirect
	go.opencensus.io v0.22.5 // indirect
	go.uber.org/ratelimit v0.1.0 // indirect
	golang.org/x/net v0.0.0-20211112202133-69e39bad7dc2 // indirect
	golang.org/x/text v0.3.7 // indirect
	golang.org/x/time v0.0.0-20201208040808-7e3f01d25324 // indirect
	google.golang.org/api v0.36.0 // indirect
	google.golang.org/appengine v1.6.7 // indirect
	google.golang.org/genproto v0.0.0-20210119180700-e258113e47cc // indirect
	google.golang.org/grpc v1.35.0 // indirect
	google.golang.org/protobuf v1.25.0 // indirect
	gopkg.in/check.v1 v1.0.0-20201130134442-10cb98267c6c // indirect
	gopkg.in/ini.v1 v1.62.0 // indirect
	gopkg.in/ns1/ns1-go.v2 v2.4.3 // indirect
	gopkg.in/square/go-jose.v2 v2.5.1 // indirect
	gopkg.in/yaml.v2 v2.4.0 // indirect
	gopkg.in/yaml.v3 v3.0.0-20210107192922-496545a6307b // indirect
)
